type,description,geometry
workland,,"{""type"": ""Polygon"", ""coordinates"": [[[-2.065549, 57.133215], [-2.065535, 57.132974], [-2.065826, 57.132629], [-2.067277, 57.131774], [-2.067678, 57.131497], [-2.065397, 57.131594], [-2.06436, 57.131512], [-2.06371, 57.133185], [-2.063462, 57.13344], [-2.06201, 57.133245], [-2.061665, 57.132869], [-2.060393, 57.132779], [-2.060586, 57.133417], [-2.061098, 57.13341], [-2.061844, 57.13362], [-2.061817, 57.133717], [-2.06342, 57.13419], [-2.065549, 57.133215]]]}"
building,,"{""type"": ""Polygon"", ""coordinates"": [[[-2.06454, 57.13359], [-2.063821, 57.13338], [-2.065356, 57.131677], [-2.066143, 57.131939], [-2.06454, 57.13359]]]}"
land,,"{""type"": ""Polygon"", ""coordinates"": [[[-2.062349, 57.135818], [-2.061174, 57.13545], [-2.060676, 57.134955], [-2.060414, 57.1344], [-2.060579, 57.13362], [-2.062252, 57.134197], [-2.063358, 57.134752], [-2.063413, 57.134925], [-2.063082, 57.135203], [-2.062349, 57.135818]]]}"
building,,"{""type"": ""Polygon"", ""coordinates"": [[[-2.062045, 57.135593], [-2.062612, 57.135323], [-2.0621, 57.135], [-2.061575, 57.135323], [-2.062045, 57.135593]]]}"
building,,"{""type"": ""Polygon"", ""coordinates"": [[[-2.062639, 57.13524], [-2.063151, 57.134947], [-2.062722, 57.134677], [-2.062211, 57.134962], [-2.062639, 57.13524]]]}"
land,,"{""type"": ""Polygon"", ""coordinates"": [[[-2.061354, 57.136155], [-2.061257, 57.13572], [-2.06134, 57.135578], [-2.062321, 57.135878], [-2.062211, 57.135938], [-2.061354, 57.136155]]]}"
building,,"{""type"": ""Polygon"", ""coordinates"": [[[-2.062017, 57.13596], [-2.061409, 57.13578], [-2.061561, 57.135668], [-2.062114, 57.135825], [-2.062017, 57.13596]]]}"
