{
"type": "FeatureCollection",
"name": "export_area",
"crs": { "type": "name", "properties": { "name": "urn:ogc:def:crs:OGC:1.3:CRS84" } },
"features": [
{ "type": "Feature", "properties": { "id": 1 }, "geometry": { "type": "MultiPolygon", "coordinates": [ [ [ [ -2.049573653746716, 57.143674775555091 ], [ -2.046083703733583, 57.129034306502412 ], [ -2.052929374913189, 57.113149041913296 ], [ -2.089171163511101, 57.115481250542182 ], [ -2.091050367364326, 57.125682937081436 ], [ -2.096687978924001, 57.131584058299339 ], [ -2.093600715450846, 57.139669252525863 ], [ -2.089976536591055, 57.143674775555091 ], [ -2.049573653746716, 57.143674775555091 ] ] ] ] } }
]
}
