{
"type": "FeatureCollection",
"name": "opportunity_zones",
"crs": { "type": "name", "properties": { "name": "urn:ogc:def:crs:OGC:1.3:CRS84" } },
"features": [
{ "type": "Feature", "properties": { "zone_id": "OP56", "description": "Opportunity Zone of St Fittick's Park" }, "geometry": { "type": "Polygon", "coordinates": [ [ [ -2.064429, 57.134502 ], [ -2.072309, 57.131013 ], [ -2.070442, 57.131216 ], [ -2.070111, 57.130788 ], [ -2.06389, 57.130946 ], [ -2.061692, 57.130518 ], [ -2.061692, 57.130923 ], [ -2.060033, 57.130293 ], [ -2.059535, 57.130293 ], [ -2.060572, 57.131126 ], [ -2.060945, 57.132949 ], [ -2.061899, 57.132972 ], [ -2.062646, 57.133557 ], [ -2.062563, 57.133804 ], [ -2.064429, 57.134502 ] ] ] } },
{ "type": "Feature", "properties": { "zone_id": "OP62", "description": "Opportunity Zone around the South Harbour" }, "geometry": { "type": "Polygon", "coordinates": [ [ [ -2.06418, 57.134547 ], [ -2.063309, 57.13538 ], [ -2.065051, 57.136032 ], [ -2.059204, 57.135852 ], [ -2.058955, 57.13646 ], [ -2.058167, 57.136707 ], [ -2.057959, 57.136887 ], [ -2.057006, 57.136842 ], [ -2.056384, 57.137157 ], [ -2.055139, 57.136775 ], [ -2.053273, 57.137247 ], [ -2.053024, 57.139048 ], [ -2.048214, 57.139565 ], [ -2.047633, 57.139138 ], [ -2.047177, 57.138665 ], [ -2.045974, 57.138823 ], [ -2.04726, 57.13835 ], [ -2.047426, 57.137675 ], [ -2.048463, 57.136977 ], [ -2.051075, 57.136482 ], [ -2.053024, 57.13574 ], [ -2.0546, 57.135762 ], [ -2.056259, 57.135267 ], [ -2.057337, 57.134344 ], [ -2.058623, 57.133827 ], [ -2.058706, 57.133422 ], [ -2.058457, 57.133152 ], [ -2.057586, 57.132949 ], [ -2.058208, 57.131666 ], [ -2.057711, 57.131036 ], [ -2.05601, 57.130383 ], [ -2.054061, 57.129956 ], [ -2.052278, 57.129866 ], [ -2.049956, 57.129145 ], [ -2.04925, 57.128358 ], [ -2.049956, 57.128132 ], [ -2.051573, 57.128042 ], [ -2.053024, 57.128087 ], [ -2.05261, 57.127232 ], [ -2.052651, 57.126399 ], [ -2.053273, 57.125341 ], [ -2.054974, 57.124373 ], [ -2.056881, 57.123135 ], [ -2.058623, 57.123518 ], [ -2.057711, 57.125184 ], [ -2.055264, 57.126804 ], [ -2.056052, 57.128403 ], [ -2.057959, 57.129663 ], [ -2.059328, 57.130271 ], [ -2.060531, 57.131194 ], [ -2.060697, 57.133017 ], [ -2.061775, 57.132994 ], [ -2.062521, 57.133579 ], [ -2.062438, 57.133939 ], [ -2.06418, 57.134547 ] ] ] } },
{ "type": "Feature", "properties": { "zone_id": "OP64", "description": null }, "geometry": { "type": "Polygon", "coordinates": [ [ [ -2.065341, 57.129663 ], [ -2.066461, 57.129359 ], [ -2.066492, 57.12887 ], [ -2.06615, 57.128464 ], [ -2.065995, 57.128042 ], [ -2.066648, 57.127384 ], [ -2.066834, 57.126388 ], [ -2.06643, 57.125696 ], [ -2.065372, 57.125375 ], [ -2.06475, 57.124733 ], [ -2.062635, 57.124598 ], [ -2.062698, 57.123349 ], [ -2.061702, 57.123332 ], [ -2.060987, 57.123855 ], [ -2.061329, 57.124835 ], [ -2.061391, 57.125307 ], [ -2.058716, 57.125307 ], [ -2.058219, 57.12627 ], [ -2.059712, 57.127958 ], [ -2.060271, 57.128026 ], [ -2.061018, 57.128903 ], [ -2.061485, 57.129275 ], [ -2.062542, 57.129545 ], [ -2.063724, 57.129477 ], [ -2.065341, 57.129663 ] ] ] } },
{ "type": "Feature", "properties": { "zone_id": "OP61", "description": null }, "geometry": { "type": "Polygon", "coordinates": [ [ [ -2.058234, 57.124708 ], [ -2.061096, 57.124472 ], [ -2.060816, 57.123881 ], [ -2.061873, 57.123239 ], [ -2.06262, 57.123307 ], [ -2.062682, 57.124387 ], [ -2.063024, 57.12437 ], [ -2.06374, 57.120538 ], [ -2.060411, 57.11966 ], [ -2.056959, 57.123121 ], [ -2.058639, 57.123459 ], [ -2.058234, 57.124708 ] ] ] } },
{ "type": "Feature", "properties": { "zone_id": "OP107", "description": null }, "geometry": { "type": "Polygon", "coordinates": [ [ [ -2.077145, 57.127865 ], [ -2.079167, 57.127266 ], [ -2.078529, 57.126261 ], [ -2.078638, 57.125831 ], [ -2.079058, 57.12567 ], [ -2.078032, 57.124835 ], [ -2.076616, 57.125535 ], [ -2.077285, 57.125949 ], [ -2.076243, 57.126354 ], [ -2.077021, 57.127654 ], [ -2.077145, 57.127865 ] ] ] } },
{ "type": "Feature", "properties": { "zone_id": "OP99", "description": null }, "geometry": { "type": "Polygon", "coordinates": [ [ [ -2.076259, 57.138866 ], [ -2.075232, 57.13928 ], [ -2.071873, 57.139195 ], [ -2.069307, 57.137803 ], [ -2.072402, 57.137305 ], [ -2.073242, 57.138638 ], [ -2.080364, 57.137069 ], [ -2.080504, 57.137896 ], [ -2.07982, 57.138056 ], [ -2.079478, 57.137811 ], [ -2.076259, 57.138495 ], [ -2.076259, 57.138866 ] ] ] } },
{ "type": "Feature", "properties": { "zone_id": "OP97", "description": null }, "geometry": { "type": "Polygon", "coordinates": [ [ [ -2.07772, 57.137575 ], [ -2.07699, 57.136563 ], [ -2.076025, 57.13679 ], [ -2.076818, 57.137803 ], [ -2.07772, 57.137575 ] ] ] } },
{ "type": "Feature", "properties": { "zone_id": "OP103", "description": null }, "geometry": { "type": "Polygon", "coordinates": [ [ [ -2.088949, 57.134411 ], [ -2.088296, 57.13409 ], [ -2.089229, 57.133381 ], [ -2.089851, 57.13355 ], [ -2.090442, 57.133583 ], [ -2.090488, 57.133828 ], [ -2.090006, 57.133946 ], [ -2.089758, 57.133786 ], [ -2.088949, 57.134411 ] ] ] } }
]
}
